%YAML 1.1
%TAG !u! tag:unity3d.com,2011:
--- !u!78 &1
TagManager:
  serializedVersion: 2
  tags:
  - Team 1 Gatherer
  - Team 2 Gatherer
  - Ranged Team 1
  - Team 2
  - Ranged Team 2
  - Team 1
  - Worker
  - Buildings 1
  - Buildings 2
  layers:
  - Default
  - TransparentFX
  - Ignore Raycast
  - 
  - Water
  - UI
  - 
  - 
  - Team 1 Units
  - Team 2 Units
  - Team 1 Buildings
  - Team 2 Buildings
  - Team 1 Gatherer
  - Team 2 Gatherer
  - 
  - 
  - 
  - 
  - 
  - 
  - 
  - 
  - 
  - 
  - 
  - 
  - 
  - 
  - 
  - 
  - 
  - 
  m_SortingLayers:
  - name: Default
    uniqueID: 0
    locked: 0
